<?xml version="1.0" encoding="utf-8"?><!-- Uploaded to: SVG Repo, www.svgrepo.com, Generator: SVG Repo Mixer Tools -->
<svg width="800px" height="800px" viewBox="0 0 24 24" fill="none" xmlns="http://www.w3.org/2000/svg">
<path opacity="0.5" d="M6.87114 19.4986C7.80085 20 8.91458 20 11.142 20H13.779C17.6544 20 19.5921 20 20.7961 18.8284C22 17.6569 22 15.7712 22 12C22 8.22876 22 6.34315 20.7961 5.17157C19.5921 4 17.6544 4 13.779 4H11.142C8.91458 4 7.80085 4 6.87114 4.50143C5.94144 5.00286 5.35117 5.92191 4.17061 7.76001L3.48981 8.82001C2.4966 10.3664 2 11.1396 2 12C2 12.8604 2.4966 13.6336 3.48981 15.18L4.17061 16.24C5.35117 18.0781 5.94144 18.9971 6.87114 19.4986Z" fill="#1C274C"/>
<path d="M11.0303 8.96967C10.7374 8.67678 10.2626 8.67678 9.96967 8.96967C9.67678 9.26256 9.67678 9.73744 9.96967 10.0303L11.9394 12L9.96969 13.9697C9.6768 14.2626 9.6768 14.7374 9.96969 15.0303C10.2626 15.3232 10.7375 15.3232 11.0304 15.0303L13 13.0607L14.9696 15.0303C15.2625 15.3232 15.7374 15.3232 16.0303 15.0303C16.3232 14.7374 16.3232 14.2625 16.0303 13.9697L14.0607 12L16.0303 10.0304C16.3232 9.73746 16.3232 9.26258 16.0303 8.96969C15.7374 8.6768 15.2626 8.6768 14.9697 8.96969L13 10.9394L11.0303 8.96967Z" fill="#1C274C"/>
</svg>